/* XPM */
static char * PKDial_xpm[] = {
"83 83 482 2",
"  	c #31363B",
". 	c #383C41",
"+ 	c #45484C",
"@ 	c #505255",
"# 	c #595A5C",
"$ 	c #616364",
"% 	c #393C41",
"& 	c #3B3F44",
"* 	c #656769",
"= 	c #757778",
"- 	c #777879",
"; 	c #767777",
"> 	c #777778",
", 	c #797B7D",
"' 	c #7D7F83",
") 	c #82858A",
"! 	c #868B92",
"~ 	c #878B92",
"{ 	c #777777",
"] 	c #757678",
"^ 	c #666869",
"/ 	c #464A4E",
"( 	c #DCDEDE",
"_ 	c #C8CACC",
": 	c #8C9093",
"< 	c #373C42",
"[ 	c #34393E",
"} 	c #74787B",
"| 	c #575B5F",
"1 	c #4D5154",
"2 	c #727377",
"3 	c #78797A",
"4 	c #7A7C7E",
"5 	c #878B93",
"6 	c #949CAA",
"7 	c #99A2B0",
"8 	c #9EA8B9",
"9 	c #A1ABBD",
"0 	c #A2ACBD",
"a 	c #A3ADBE",
"b 	c #A4ADBE",
"c 	c #A4ADBF",
"d 	c #A4AEBF",
"e 	c #A5AEBF",
"f 	c #A2ACBB",
"g 	c #9DA4B3",
"h 	c #989FAD",
"i 	c #878C93",
"j 	c #7C7D7F",
"k 	c #838385",
"l 	c #A7A9AA",
"m 	c #C6C7C8",
"n 	c #32373C",
"o 	c #64686B",
"p 	c #D9DADC",
"q 	c #DFE0E1",
"r 	c #969799",
"s 	c #777878",
"t 	c #7D7F82",
"u 	c #898E97",
"v 	c #98A0AF",
"w 	c #A0AABC",
"x 	c #A1ABBC",
"y 	c #A3ACBD",
"z 	c #A5AFBF",
"A 	c #A6AFC0",
"B 	c #AAB4C4",
"C 	c #A6AEBB",
"D 	c #9499A2",
"E 	c #828487",
"F 	c #6F7072",
"G 	c #42454A",
"H 	c #54575C",
"I 	c #A2A3A5",
"J 	c #808182",
"K 	c #9AA1AB",
"L 	c #9CA6B6",
"M 	c #9EA9BB",
"N 	c #9FA9BB",
"O 	c #ACB5C6",
"P 	c #AEB7C7",
"Q 	c #A9B2C2",
"R 	c #A0A9B8",
"S 	c #90959F",
"T 	c #78797B",
"U 	c #727476",
"V 	c #373C41",
"W 	c #6F7174",
"X 	c #9399A2",
"Y 	c #A7B1C2",
"Z 	c #9EA8BA",
"` 	c #9FAABB",
" .	c #A3ACBE",
"..	c #A7B0C1",
"+.	c #ADB7C7",
"@.	c #A8B1C1",
"#.	c #A4AEBE",
"$.	c #A3ACBC",
"%.	c #8C919B",
"&.	c #6F7173",
"*.	c #646568",
"=.	c #878C95",
"-.	c #9DA7BA",
";.	c #ADB6C7",
">.	c #A9B2C3",
",.	c #ABB5C5",
"'.	c #A7B1C1",
").	c #A3ADBD",
"!.	c #A1ABBB",
"~.	c #A0A9BA",
"{.	c #878C94",
"].	c #646567",
"^.	c #77787A",
"/.	c #83878D",
"(.	c #9AA4B6",
"_.	c #9CA7B9",
":.	c #A5AFC0",
"<.	c #9DA8BA",
"[.	c #ADB6C6",
"}.	c #A6AFBF",
"|.	c #A2ABBC",
"1.	c #A0AABA",
"2.	c #9AA4B3",
"3.	c #82858B",
"4.	c #4B4E52",
"5.	c #767676",
"6.	c #949EAC",
"7.	c #9CA6B9",
"8.	c #A2ACBE",
"9.	c #ABB4C5",
"0.	c #A1ACBD",
"a.	c #A8B1C2",
"b.	c #A6B0C0",
"c.	c #A1AABB",
"d.	c #9FA8B9",
"e.	c #9DA6B7",
"f.	c #9BA5B6",
"g.	c #929AA7",
"h.	c #484B4F",
"i.	c #626468",
"j.	c #9BA5B7",
"k.	c #9BA6B9",
"l.	c #A9B3C3",
"m.	c #A1AABC",
"n.	c #A7B0C0",
"o.	c #9FA9B9",
"p.	c #9DA7B8",
"q.	c #99A3B4",
"r.	c #96A0B0",
"s.	c #7A7B7D",
"t.	c #606266",
"u.	c #6E7073",
"v.	c #808388",
"w.	c #9BA6B8",
"x.	c #A4ADBD",
"y.	c #9EA7B8",
"z.	c #9CA5B6",
"A.	c #9AA4B5",
"B.	c #98A2B3",
"C.	c #96A0B1",
"D.	c #7F8186",
"E.	c #6D6F71",
"F.	c #747578",
"G.	c #868B94",
"H.	c #9BA5B8",
"I.	c #9AA5B8",
"J.	c #A2ACBC",
"K.	c #9EA8B8",
"L.	c #9CA6B7",
"M.	c #959EB0",
"N.	c #838890",
"O.	c #727376",
"P.	c #878B94",
"Q.	c #9AA5B7",
"R.	c #9DA7B9",
"S.	c #9BA4B5",
"T.	c #99A2B4",
"U.	c #97A1B2",
"V.	c #959FB0",
"W.	c #939DAE",
"X.	c #848991",
"Y.	c #717376",
"Z.	c #43494D",
"`.	c #99A4B7",
" +	c #A5AEBE",
".+	c #919BAC",
"++	c #83878F",
"@+	c #8A8C8E",
"#+	c #E7E8EA",
"$+	c #585C60",
"%+	c #9AA4B7",
"&+	c #9DA7B7",
"*+	c #939DAF",
"=+	c #929CAE",
"-+	c #8A8D91",
";+	c #C3C4C5",
">+	c #DADCDD",
",+	c #98A4B7",
"'+	c #98A3B7",
")+	c #959FB1",
"!+	c #7F8082",
"~+	c #B4B5B8",
"{+	c #3E4247",
"]+	c #98A3B6",
"^+	c #9FA9BA",
"/+	c #98A1B2",
"(+	c #77797A",
"_+	c #949DAC",
":+	c #97A2B6",
"<+	c #8C96A8",
"[+	c #88909E",
"}+	c #747577",
"|+	c #9AA3B4",
"1+	c #8E98AA",
"2+	c #8A94A6",
"3+	c #7F8288",
"4+	c #616265",
"5+	c #969FB1",
"6+	c #909AAB",
"7+	c #8992A4",
"8+	c #949EAF",
"9+	c #929CAD",
"0+	c #8E98A9",
"a+	c #82878F",
"b+	c #6A6D70",
"c+	c #6C6F74",
"d+	c #66696D",
"e+	c #353A3F",
"f+	c #949AA3",
"g+	c #929BAD",
"h+	c #9099AB",
"i+	c #8C96A7",
"j+	c #848993",
"k+	c #6E7072",
"l+	c #75797C",
"m+	c #919BAD",
"n+	c #8F99AB",
"o+	c #8D97A9",
"p+	c #8B96A7",
"q+	c #404548",
"r+	c #4A4F53",
"s+	c #909193",
"t+	c #99A0AA",
"u+	c #8B95A7",
"v+	c #858B96",
"w+	c #6C6D70",
"x+	c #9CA5B5",
"y+	c #A6AFC1",
"z+	c #A3ADBF",
"A+	c #8891A1",
"B+	c #AAB3C4",
"C+	c #939CAE",
"D+	c #909BAC",
"E+	c #8F99AA",
"F+	c #7B7D80",
"G+	c #4A4E51",
"H+	c #909AAC",
"I+	c #8C97A8",
"J+	c #8A95A6",
"K+	c #838891",
"L+	c #A0A8B6",
"M+	c #848586",
"N+	c #EDEEEF",
"O+	c #41464A",
"P+	c #808183",
"Q+	c #DDDEDF",
"R+	c #727679",
"S+	c #99A2B3",
"T+	c #97A0B2",
"U+	c #90949B",
"V+	c #A0A1A2",
"W+	c #676C6F",
"X+	c #959BAA",
"Y+	c #8E99AA",
"Z+	c #8D97A8",
"`+	c #87909C",
" @	c #717375",
".@	c #88909F",
"+@	c #777779",
"@@	c #8992A3",
"#@	c #8C9097",
"$@	c #8D9199",
"%@	c #9AA4B4",
"&@	c #83868B",
"*@	c #79797A",
"=@	c #7E7F82",
"-@	c #787879",
";@	c #7F8286",
">@	c #949CAB",
",@	c #797A7C",
"'@	c #44474B",
")@	c #9096A2",
"!@	c #9197A2",
"~@	c #8C9098",
"{@	c #8D9299",
"]@	c #9198A2",
"^@	c #9CA4B5",
"/@	c #868A91",
"(@	c #7C7E81",
"_@	c #7B7D81",
":@	c #4F5255",
"<@	c #9EA6B4",
"[@	c #808286",
"}@	c #84878B",
"|@	c #888C91",
"1@	c #9197A1",
"2@	c #939BA8",
"3@	c #7E8086",
"4@	c #595B5D",
"5@	c #787878",
"6@	c #7E8083",
"7@	c #949BA6",
"8@	c #959CA8",
"9@	c #7D7E81",
"0@	c #8E929A",
"a@	c #A4ADBC",
"b@	c #979DA9",
"c@	c #8C9199",
"d@	c #9097A1",
"e@	c #9AA3B3",
"f@	c #7E8185",
"g@	c #80858C",
"h@	c #616365",
"i@	c #99A1AF",
"j@	c #9298A3",
"k@	c #9BA2B0",
"l@	c #9CA3B0",
"m@	c #7A7B7C",
"n@	c #84878C",
"o@	c #7D7F81",
"p@	c #9097A5",
"q@	c #8F959F",
"r@	c #818387",
"s@	c #83878C",
"t@	c #8D929A",
"u@	c #7F8184",
"v@	c #8A8E95",
"w@	c #8B9098",
"x@	c #8F95A0",
"y@	c #99A3B3",
"z@	c #8D939E",
"A@	c #929BAA",
"B@	c #9CA4B0",
"C@	c #84868B",
"D@	c #8B8F97",
"E@	c #8E95A0",
"F@	c #8A909B",
"G@	c #9FA8B8",
"H@	c #9CA4B3",
"I@	c #9AA2B0",
"J@	c #A0A9B9",
"K@	c #888C93",
"L@	c #9DA5B4",
"M@	c #9399A4",
"N@	c #8F939B",
"O@	c #969CA7",
"P@	c #8A8F97",
"Q@	c #8E949F",
"R@	c #97A1B1",
"S@	c #8C929E",
"T@	c #767677",
"U@	c #8E96A4",
"V@	c #7F8185",
"W@	c #969DA8",
"X@	c #9FA7B4",
"Y@	c #808285",
"Z@	c #83868A",
"`@	c #868990",
" #	c #8A8E96",
".#	c #7B7D7F",
"+#	c #888E9A",
"@#	c #A8B1C0",
"##	c #7A7A7B",
"$#	c #A0A2A5",
"%#	c #383D42",
"&#	c #A5ADBA",
"*#	c #858687",
"=#	c #E5E6E7",
"-#	c #ABB4C4",
";#	c #A1A8B3",
">#	c #9E9FA1",
",#	c #C3C4C7",
"'#	c #82868E",
")#	c #7B7C7D",
"!#	c #7C7E7F",
"~#	c #43474A",
"{#	c #3D4246",
"]#	c #878F9E",
"^#	c #C6C8CA",
"/#	c #A7A8AA",
"(#	c #828790",
"_#	c #6E6F72",
":#	c #B9BCBD",
"<#	c #818386",
"[#	c #7A7C7F",
"}#	c #4C5053",
"|#	c #8991A2",
"1#	c #6F7172",
"2#	c #9095A0",
"3#	c #6B6C6F",
"4#	c #78787A",
"5#	c #404348",
"6#	c #9BA4B6",
"7#	c #81868F",
"8#	c #6A6C6F",
"9#	c #ACB5C5",
"0#	c #98A1B3",
"a#	c #ACB6C6",
"b#	c #898C93",
"c#	c #68696B",
"d#	c #A29BAB",
"e#	c #A4AAB8",
"f#	c #D8DADB",
"g#	c #373C40",
"h#	c #B8727E",
"i#	c #F31315",
"j#	c #F70C0E",
"k#	c #E92326",
"l#	c #A6909F",
"m#	c #7A7A7A",
"n#	c #EFF0F1",
"o#	c #878A8D",
"p#	c #B6717E",
"q#	c #FB0708",
"r#	c #FF0000",
"s#	c #FA0708",
"t#	c #9B9BAB",
"u#	c #707175",
"v#	c #ABADB0",
"w#	c #F11517",
"x#	c #D63E45",
"y#	c #7D8084",
"z#	c #5C5E62",
"A#	c #6D6F72",
"B#	c #A08B9A",
"C#	c #E82226",
"D#	c #81858D",
"E#	c #E72125",
"F#	c #FE0101",
"G#	c #C75159",
"H#	c #91787F",
"I#	c #F50D0E",
"J#	c #FF0101",
"K#	c #EC1B1E",
"L#	c #9297A8",
"M#	c #6B6D6F",
"N#	c #8A7579",
"O#	c #D23D44",
"P#	c #E62125",
"Q#	c #C3515A",
"R#	c #5D6063",
"S#	c #8B95A6",
"T#	c #8993A4",
"U#	c #474A4F",
"V#	c #89909F",
"W#	c #96A1B2",
"X#	c #878F9D",
"Y#	c #808389",
"Z#	c #7E8288",
"`#	c #8F9092",
" $	c #7A7B7B",
".$	c #91969E",
"+$	c #91969D",
"@$	c #7B7B7C",
"#$	c #8E8F91",
"$$	c #BDBFC2",
"%$	c #ADAFB1",
"&$	c #AEB0B2",
"*$	c #BABCBE",
"=$	c #73777A",
"-$	c #B3B6B8",
";$	c #848B95",
">$	c #B5B8B9",
",$	c #6D6E70",
"'$	c #6C6C6F",
")$	c #787A7B",
"!$	c #878F9C",
"~$	c #878E9C",
"{$	c #81858C",
"]$	c #636566",
"^$	c #727375",
"/$	c #636567",
"                                                                                                                                                                      ",
"                                                                                                                                                                      ",
"                                                                        . + @ # $ $ # @ + %           &                                                               ",
"                                                              + * = - ; > , ' ) ! ~ ) ' , { ; - ] ^ / ( _ : <                                                         ",
"                                                [ } |   1 2 3 4 5 6 7 8 9 0 0 0 a a b c d e f g h i j k l m n                                                         ",
"                                              o p q r s t u v w w w w x 9 9 0 0 y a a b d d e z A A B C D E > F G                                                     ",
"                                              H I J K L M N N N w w w w x 9 9 0 0 y a a b d e z z A O P P Q R S T U V                                                 ",
"                                            W { X P P Y Z M M N N ` w w w x 9 9 0 0  .a b c d e z ..P P +.@.A #.$.%.; &.                                              ",
"                                        *.{ =.-.9 P P ;.N Z Z M N N ` w w w x 9 0 0 0 a a b d e z >.P P ,.'...e ).!.~.{.{ ].                                          ",
"                                      ^./.(._._._.B P P :.<.Z Z M N N w w w x x 9 0 0  .a a c d e >.[.P >...@.}.b |.1.8 2.3.^.                                        ",
"                                  4.5.6.7.7.7.7._.8.P P 9.-.<.Z Z M N N w w w x 9 0.0 0 a a b d e z A a.....'.b.#.$.c.d.e.f.g.{ h.                                    ",
"                                i., j.k.k.k.k.k.k.7.l.d -.-.-.<.Z Z M N N w w m.x 9 0 0  .a b d d e z A b.n.'.n.e y !.o.p.f.q.r.s.t.                                  ",
"                              u.v.k.w.w.w.w.w.w.k.k.k.7._._.-.-.<.Z M N N w w w x 9 0 0 y a a c d e z A b.n...'.}.x.|.~.y.z.A.B.C.D.E.                                ",
"                            F.G.w.H.I.I.I.I.I.I.H.w.k.k.7._._.-.<.Z Z M N N w w x 9 9 0 0 a a b d e z A A b...@.}.b J.1.K.L.A.B.C.M.N.O.                              ",
"                          F.P.w.I.I.I.I.Q.Q.I.I.I.I.w.k.k.7._.R.-.<.Z M N N w w w x 9 0 0  .a b d d z :.A b...'.A #.$.1.d.e.S.T.U.V.W.X.Y.  Z.                        ",
"                        u.G.w.I.I.Q.`.`.`.`.`.`.Q.I.I.w.k.k.7._.-.<.Z Z M N ` w w x 9 0 0 y a a c d e z A b...'.n. +y c.d.e.f.q.U.V.W..+++@+#+$+                      ",
"                      i.v.w.I.I.%+`.`.`.`.`.`.`.`.%+I.I.w.k.7._.R.-.<.Z M N N w w x 9 0.0 y a a c d e z A b.n.'.n.e y c.o.&+f.q.U.V.*+=+).-+;+>+Z.                    ",
"                    4., k.H.I.Q.`.`.`.,+'+'+,+`.`.`.Q.I.H.k.k._._.-.<.Z M N N w w m.x 9 0 0 a a b d e z A b.n.....e ).!.o.p.f.q.U.)+C.a.P P !+~+{+                    ",
"                    5.j.w.I.I.`.`.`.'+]+]+]+]+'+`.`.`.I.I.w.k.7._.-.<.Z Z N N w w w x 9 0 0 a a b d e z A A n...'.z ).!.^+p.z.q./+f.9.P P +.y.{                       ",
"                  (+_+k.w.I.I.`.`.,+]+]+:+:+]+]+,+`.`.I.I.w.k.7._.-.-.Z Z M N w w w x 9 0 0 a a b d e z A A n...'.z ).x ~.y.z.q./+b P P [.S.<+[+}+                    ",
"                *./.7.k.w.I.Q.`.`.'+]+:+:+:+:+]+'+`.`.Q.I.w.k.7._.-.-.Z Z M N w w w x 9 0 0 a a b d e z A A n...'.}.x.x ~.y.z.|+/+C.'.9.U.1+<+2+3+4+                  ",
"                { (.7.k.w.I.Q.`.`.'+]+:+:+:+:+]+'+`.`.Q.I.w.k.7._.-.-.Z Z M N w w w x 9 0 0 a a b d e z A A n...'.}.x.x ~.y.z.|+/+5+5+V.6+1+<+2+7+>                   ",
"              W =._.7.k.w.I.I.`.`.,+]+]+:+:+]+]+,+`.`.I.I.w.k.7._.-.-.Z Z M N w w w x 9 0 0 a a b d e z A A n...'.z ).x ~.y.z.q./+5+8+9+6+0+<+2+2+a+b+                ",
"          c+d+{ -._.7.k.w.I.I.`.`.`.'+]+]+]+]+'+`.`.`.I.I.w.k.7._.-.<.Z Z N N w w w x 9 0 0 a a b d e z A A n...'.z ).!.^+p.z.q./+5+8+9+6+0+<+2+2+2+; e+              ",
"        [ p I f+a -._.k.k.H.I.Q.`.`.`.,+'+'+,+`.`.`.Q.I.H.k.k._._.-.<.Z M N N w w m.x 9 0 0 a a b d e z A b.n.....e ).!.o.p.f.q.U.)+*+g+h+0+i+2+2+2+j+k+              ",
"        l+q J P P ,.d R.k.w.I.I.%+`.`.`.`.`.`.`.`.%+I.I.w.k.7._.R.-.<.Z M N N w w x 9 0.0 y a a c d e z A b.n.'.n.e y c.o.&+f.q.U.V.*+m+n+o+p+2+2+2+2+3 q+            ",
"        r+s+t+P P P P B k.k.w.I.I.Q.`.`.`.`.`.`.Q.I.I.w.k.k.7._.-.<.Z Z M N ` w w x 9 0 0 y a a c d e z A b...'.n. +y c.d.e.f.q.U.V.W..+n+o+u+2+2+2+2+v+w+            ",
"          s x+y+O P P z+7.k.k.w.I.I.I.I.Q.Q.I.I.I.I.w.k.k.7._.R.-.<.Z M N N w w w x 9 0 0  .a b d d z :.A b...'.A #.$.1.d.e.S.T.U.V.W..+n+o+u+2+2+2+2+A+s             ",
"        1 t M Z M d B+-._.7.k.k.w.H.I.I.I.I.I.I.H.w.k.k.7._._.-.<.Z Z M N N w w x 9 9 0 0 a a b d e z A A b...@.}.b J.1.K.L.A.B.C.M.C+D+E+o+u+2+2+2+2+2+F+G+          ",
"        2 u N M Z <.-.-._._.7.k.k.k.w.w.w.w.w.w.k.k.k.7._._.-.-.<.Z M N N w w w x 9 0 0 y a a c d e z A b.n...'.}.x.|.~.y.z.A.B.C.8+=+H+1+I+J+2+2+2+2+2+K+F.c+        ",
"        3 v N M Z Z <.-.-._._.7.7.k.k.k.k.k.k.k.k.7.7._._.-.-.<.Z Z M N N w w m.x 9 0 0  .a b d d e z A b.n.'.n.e y !.o.p.f.q./+5+8+9+H+1+<+2+2+2+<+V.d.L+M+N+O+      ",
"      + 4 w N N M Z Z <.-.-.R._._._.7.7.7.7.7.7._._._.R.-.-.<.Z Z M N N w w w x 9 0.0 0 a a b d e z A A b...'.b.#.$.c.d.e.f.q.U.V.*+m+n+0+i+2+2+y ;.P P P P+Q+R+      ",
"      * 5 w w N N M Z Z <.<.-.-.R._._._._._._._._.R.-.-.<.<.Z Z M N N w w w x x 9 0 0  .a a c d e z A A n...@.}.b |.1.8 L.S.S+T+V.W..+n+o+u+2+2+1.P P P P U+V+W+      ",
"      = X+w w ` N N M Z Z Z <.<.-.-.-.-.-.-.-.-.-.-.<.<.Z Z Z M N N ` w w w x 9 0 0 0 a a b d e z z A b.n.'...e ).!.~.y.z.A.B.C.8+=+H+Y+Z+u+2+2+U.[.}.L.C+`+ @        ",
"      - 7 w w w ` N N M M Z Z Z <.<.<.-.-.-.-.<.<.<.Z Z Z M M N N ` w w w x 9 9 0 0  .a b c d e z A A b...'.A #.$.c.d.&+f.q.U.5+8+9+H+1+<+2+2+2+u+p+2+2+2+.@+@        ",
"      ; 8 x w w w w N N N M M Z Z Z Z Z Z Z Z Z Z Z Z M M N N N w w w w x 9 9 0 0 y a a b d e z z A b.n...'.}.x.|.~.K.L.S.S+U.V.W..+n+o+p+2+2+2+2+2+2+2+2+@@>         ",
"    . > 9 9 x w w w w N N N N M M M Z Z Z Z Z Z M M M N N N N w w w w x 9 9 0 0 y a a b d d e z A A #@$@'.b. +y c.o.p.z.%@B.C.8+=+D+E+o+u+2+2+2+2+2+2+2+2+2+; V       ",
"    + , 0 9 9 x w w w w w N N N N N N M M M M N N N ) 5.5.5.3 w w w &@5.5.5.*@0 a a b c d e z :.A b.#@$@'.}.=@5.5.-@;@>@q.U.V.*+9+H+1+<+2+2+2+2+2+2+2+2+2+2+,@'@      ",
"    @ ' 0 0 9 9 x x w w w w w ` N N N N N N N N N N ) )@w w w w x x &@!@0 0 0 a a a b d e e z A A b.~@{@b. +=@]@^+^@/@(@B.C.M.W..+n+o+p+2+2+2+2+2+2+2+2+2+2+_@:@      ",
"    # ) 0 0 0 9 9 x x m.w w w w w w w w w w w w w w 3.)@w w m.x x 9 &@]@0 0 a a a b d d e z <@[@*@}@|@$@z x.t 1@d.e.2@{ U.5+8+9+H+Y+Z+u+2+2+2+2+2+2+2+2+2+2+3@4@      ",
"    $ ! a y 0 0 0 9 9 x x x w w w w w w w w w w w w 3.3 5@6@7@9 9 0 &@*@-@6@8@a b d d e z e 9@0@a@b@{ c@#.y t d@y.e@/@f@T+V.W.m+n+0+<+2+2+2+2+2+2+2+2+2+2+2+g@h@      ",
"    $ ~ a a y 0 0 0 0.9 9 9 x x x m.w w w w w w m.x x x ^+!@> i@0 0 0 y c.j@> k@d d e z :.l@m@}...'.n@~@).|.o@5.5.5.3 p@5+8+=+H+E+o+u+2+2+2+2+2+2+2+2+2+2+2+g@h@      ",
"    # ) b a a  .0 0 0 0 0 9 9 9 9 x x x x q@5.5.r@9 9 9 9 0 s@c@0 0  .a a b n@t@d e z z A b@u@..'...v@w@J.c.o@x@z.y@z@-@A@W.m+h+0+<+2+2+2+2+2+2+2+2+2+2+2+2+3@4@      ",
"    @ ' c b a a a  .0 0 0 0 0 0 0.9 9 9 9 9 9 9 9 0.0 0 0 0 s@c@ .a a a b c n@t@e z z A A B@m@b.'.}.C@D@c.~.9@E@S.T.U.,@F@=+H+E+o+u+2+2+2+2+2+2+2+2+2+2+2+2+_@:@      ",
"    + , d d b b a a a  .y 0 0 0 0 0 0 0 0 0 0 0 0 G@~ H@~.j@> I@a J@K@L@|.M@s l@z :.A A b.A 9@N@$.O@{ P@~.8 9@Q@q.R@S@T@U@.+n+0+<+2+2+2+2+2+2+2+2+2+2+2+2+2+,@'@      ",
"    % { e d d c b a a a a a  .y y 0 0 0 0 0 0 0 0 y j@t -@u@8@a a b M@t -@V@W@z A A A b.....X@Y@*@Z@`@ #d.&+(@5.5.{ .#+#9+H+Y+o+u+2+2+2+2+2+2+2+2+&+f.M.1+2+; V       ",
"      ; f e e d d c b b a a a a a a a a a a a a a a a a a a b b c d d e e z z A A b.b.....@.b.e x.J.c.o.y.L.S.T.U.5+8+=+.+n+o+<+2+2+2+2+2+2+2+2+2+O P P P @###$#%#    ",
"      - g z z e e d d d c b b a a a a a a a a a a a a b b c d d d e e z z :.A A b.n...'.@.A e x.J.c.o.y.L.S.q./+C.M.W.m+6+1+I+u+2+2+2+2+2+2+2+2+n+P P P P &#*#=#n     ",
"      ] h A z z z e e d d d d c c b b b b b b b b c c d d d d e e z z z A A A b.n...'.'.A e x.J.c.o.y.e.f.q.B.C.V.*+9+H+Y+o+u+2+2+2+2+2+2+2+2+2+<+U.y.#.-#;#>#,#      ",
"      ^ i A A @.B+l.z e e e d d d d d d d d d d d d d d e e e z z z A A A b.b.....'...}.#.).J.c.o.y.e.f.|+B.U.V.8+=+D+n+o+<+2+2+2+2+2+2+2+2+2+2+2+2+2+2+2+'#)#d+      ",
"      4.!#-#[.P P [.A z z z z e e e e e e e e e e e e z z z z A A A A b.b.n...'.@.n.}.#.y |.c.o.y.e.f.%@B.U.)+8+=+.+n+1+<+u+2+2+2+2+2+2+2+2+2+2+2+2+2+2+2+,@~#        ",
"    {##+k C P P P P @.A A A :.z z z z z z z z z z z z :.A A A A A b.b.n.....'...A e b y x 1.o.y.e.f.%@B.U.5+8+C+.+6+1+Z+u+2+2+2+2+2+2+2+2+2+2+2+2+2+2+2+]#3           ",
"      ^#/#D P [.-#Q n.b.b.A A A A A A A A A A A A A A A A b.b.b.n.n.....'.'.b.z #.).J.c.~.d.y.L.f.|+B.U.5+8+W.m+H+Y+o+p+2+2+2+2+2+2+2+2+2+2+2+2+2+2+2+2+(#_#          ",
"      : :#<#Q '.'.....n.n.b.b.b.b.b.A A A A A A b.b.b.b.b.n.n.....'.'.'.b.}. +x.y |.c.~.8 &+L.S.q.B.U.5+8+W.g+H+Y+o+i+2+2+2+2+2+2+2+2+2+2+2+2+2+2+2+2+2+[#}#          ",
"      n   > R A ..@.'.'.........n.n.n.n.n.n.n.n.n.n.........'.'.@...A }. +b y |.c.~.o.y.e.z.S.q.B.U.)+8+W.g+H+E+o+<+2+2+2+2+2+2+2+2+2+2+2+2+2+2+2+2+2+|#>             ",
"          1#2##.e }.b.n.'.@.'.'.'.................'.'.'.@.'.n.b.}.e #.x.y J.!.1.o.8 p.L.f.A.T./+C.V.8+C+m+H+E+o+<+J+2+2+2+2+2+2+2+2+2+2+2+2+2+2+2+2+2+v+3#            ",
"          G T $.).b #.e }.}.A n.n...'.'.'.'.'.'...n.n.A }.}.e #.b ).$.|.c.1.^+d.y.e.z.S.q.B.U.C.V.8+=+.+H+Y+o+<+J+2+2+2+2+2+2+2+2+2+2+2+2+2+2+2+2+2+2+4#5#            ",
"            U %.!.|.$.y x.b #. +e e z z }.}.z z e e  +#.b x.y $.|.!.c.~.o.8 y.e.z.f.A.T.B.U.5+M.*+=+.+6+Y+o+<+J+2+2+2+2+2+2+2+2+2+2+2+2+2+2+2+2+2+2+j+_#              ",
"            V ; ~.1.c.!.|.J.$.y y ).).).x.x.).).).y y $.J.|.!.c.1.~.d.K.p.e.z.f.A.q.B.U.C.V.8+W.9+D+n+1+o+i+2+2+2+2+2+2+2+2+2+2+2+2+2+2+8+2+2+2+2+2+T@e+              ",
"              &.{.8 d.o.~.1.1.c.c.!.!.x x x x !.!.c.c.1.1.~.o.d.8 y.&+L.z.6#A.q.B.U.C.5+M.*+=+m+H+n+1+Z+p+2+2+2+2+2+2+2+2+2+2+2+2+2+2+8++.A E+2+2+7#8#                ",
"                { 2.e.p.y.K.d.d.o.o.^+~.~.~.~.^+o.o.d.d.K.y.p.e.L.z.f.S.%@q.B.U.T+5+V.8+W.9+.+6+Y+o+<+u+2+2+2+2+2+2+2+2+2+2+2+2+2+2+<+B P P 9#0#@@>                   ",
"                ].3.f.f.z.L.e.e.&+p.p.y.y.y.y.p.p.&+e.e.L.z.f.f.S.A.q.S+B.U.C.5+V.8+W.=+.+H+n+1+o+<+u+2+2+2+2+2+2+2+2+2+2+2+2+2+2+2+2+A.a#P P P b#c#                  ",
"                  ^.g.q.A.A.S.f.f.f.d#z.z.z.z.z.f.f.f.S.A.A.q.q.S+B.U.U.C.V.M.8+W.=+m+H+n+Y+o+I+u+2+2+2+2+2+2+2+2+2+2+2+2+2+2+2+2+2+2+2+H+@.P e#r f#g#                ",
"                    { r.B.B.T.q.h#i#j#k#l#|+q.q.q.q.q.T.B.B./+U.T+C.5+V.8+*+W.9+m+H+h+E+0+o+<+u+2+2+2+2+2+2+2+2+2+2+2+2+2+2+2+2+2+2+2+2+2+u+L m#n#o#                  ",
"                    h.s.C.C.U.p#q#r#r#r#s#t#/+/+U.U.U.U.C.C.5+V.V.8+8+W.=+9+.+H+n+E+0+o+<+u+2+2+2+2+2+2+2+2+2+2+2+2+2+2+2+2+2+2+2+2+2+2+2+2+,@u#v#n                   ",
"                      t.D.M.V.w#r#r#r#r#r#x#5+5+)+V.V.V.M.8+8+*+W.=+9+.+D+H+n+Y+0+o+<+u+2+2+2+2+2+2+2+2+2+2+2+2+2+2+2+2+2+2+2+2+2+2+2+2+2+y#z#                        ",
"                        A#N.B#w#r#r#r#r#r#C#8+8+*+*+W.W.C+=+9+m+.+H+H+n+E+1+o+Z+<+u+2+2+2+2+2+2+2+2+2+2+2+2+2+2+2+2+2+2+2+2+2+2+2+2+2+2+D#8#                          ",
"                          O.K+E#r#r#r#r#F#G#9+9+g+m+.+.+D+H+H+n+n+Y+1+o+o+<+p+u+2+2+2+2+2+2+2+2+2+2+2+2+2+2+2+2+2+2+2+2+2+2+2+2+2+2+2+a+W                             ",
"                            Y.H#I#r#r#J#K#L#6+A.9+n+n+n+E+1+1+0+o+Z+<+p+u+2+2+2+2+2+2+2+2+2+2+2+2+2+2+2+2+2+2+2+2+<+C.2+2+2+2+2+2+2+D#W                               ",
"                              M#N#O#P#Q#1+1+8++.9.f.o+o+o+I+<+i+u+u+2+2+2+2+2+2+2+2+2+2+2+2+2+2+2+2+2+2+2+2+2+2+q.9.;..+2+2+2+2+2+y#8#                                ",
"                                R#,@S#<+<+<+A P P ).u+u+u+J+2+2+2+2+2+2+2+2+2+2+2+2+2+2+2+2+2+2+2+2+2+2+2+2+2+2+y P P e 2+2+2+T#,@z#                                  ",
"                                  U#{ V#2+W#P P a#E+2+2+2+2+2+2+2+2+2+2+2+2+2+2+2+2+2+2+2+2+2+2+2+2+2+2+2+2+2+2+n+[.P P C.2+X#{ +                                     ",
"                                      }+Y#n.P P &+2+2+2+2+2+2+2+2+2+2+2+2+2+2+2+2+2+2+2+2+2+2+2+2+2+2+2+2+2+2+2+2+p.P P }.Z#]                                         ",
"                                        `# $.$B+u+2+2+2+2+2+2+2+2+2+2+2+2+2+2+2+2+2+2+2+2+2+2+2+2+2+2+2+2+2+2+2+2+i+B +$@$#$                                          ",
"                                      n $$n#%$> j+2+2+2+2+2+2+2+2+2+2+2+2+2+2+2+2+2+2+2+2+2+2+2+2+2+2+2+2+2+2+2+2+j+{ &$n#*$                                          ",
"                                          =$-$V k+3 v+A+2+2+2+2+2+2+2+2+2+2+2+2+2+2+2+2+2+2+2+2+2+2+2+2+2+2+|#;$4#_#V >$R+                                            ",
"                                                  q+,$s F+K+.@2+2+2+2+2+2+2+2+2+2+2+2+2+2+2+2+2+2+2+2+]#(#[#> '$5#                                                    ",
"                                                        G+A#^.)$D#!$.@@@2+2+2+2+2+2+2+2+2+2+@@.@~${$,@3 _#}#                                                          ",
"                                                              + ]$^$+@> ; ,@_@3@g@g@3@_@,@; > +@ @/$~#                                                                ",
"                                                                        V '@:@4@h@h@4@:@'@V                                                                           ",
"                                                                                                                                                                      ",
"                                                                                                                                                                      ",
"                                                                                                                                                                      "};
